Introduction to salic
…
format_result(part, timeframe = "full-year", group = "all_sports") %>%
    head(3)
#> # A tibble: 3 x 7
#>   timeframe group      segment  year category metric       value
#>   <chr>     <chr>      <chr>   <int> <chr>    <chr>        <int>
#> 1 full-year all_sports All      2008 All      participants  5834
#> 2 full-year all_sports All      2009 All      participants  6775
#> 3 full-year all_sports All      2010 All      participants  6820

We can use apply to automate this final formatting:

all_part <- metrics$participants
lapply(all_part, function(x) format_result(x, "full-year", "all_sports")) %>%
    bind_rows()
#> # A tibble: 110 x 7
#>    timeframe group      segment  year category metric       value
#>    <chr>     <chr>      <chr>   <int> <chr>    <chr>        <int>
#>  1 full-year all_sports All      2008 All      participants  5834
#>  2 full-year all_sports All      2009 All      participants  6775
#>  3 full-year all_sports All      2010 All      participants  6820
#>  4 full-year all_sports All      2011 All      participants  6734
#>  5 full-year all_sports All      2012 All      participants  6964
#>  6 full-year all_sports All      2013 All      participants  6801
#>  7 full-year all_sports All      2014 All      participants  7253
#>  8 full-year all_sports All      2015 All      participants  7153
#>  9 full-year all_sports All      2016 All      participants  7095
#> 10 full-year all_sports All      2017 All      participants  7045
#> # ... with 100 more rows
