Introduction to salic • salic
…
We can use apply to automate this final formatting:

all_part <- metrics$participants
lapply(all_part, function(x) format_result(x, "full-year", "all_sports")) %>%
    bind_rows() %>%
    filter(segment == "Gender")
#> # A tibble: 22 x 7
#>    timeframe group      segment  year category metric       value
#>    <chr>     <chr>      <chr>   <int> <chr>    <chr>        <int>
#>  1 full-year all_sports Gender   2008 Male     participants  4725
#>  2 full-year all_sports Gender   2009 Male     participants  5472
#>  3 full-year all_sports Gender   2010 Male     participants  5465
#>  4 full-year all_sports Gender   2011 Male     participants  5456
#>  5 full-year all_sports Gender   2012 Male     participants  5613
#>  6 full-year all_sports Gender   2013 Male     participants  5437
#>  7 full-year all_sports Gender   2014 Male     participants  5786
#>  8 full-year all_sports Gender   2015 Male     participants  5659
#>  9 full-year all_sports Gender   2016 Male     participants  5575
#> 10 full-year all_sports Gender   2017 Male     participants  5513
#> # ... with 12 more rows
…
