Estimate churn by year from license history — est_churn • salic
…
#>  9 Male    2017 0.446
#> 10 Male    2018 0.454
#> 11 Female  2009 0.533
#> 12 Female  2010 0.548
#> 13 Female  2011 0.597
#> 14 Female  2012 0.543
#> 15 Female  2013 0.555
#> 16 Female  2014 0.551
#> 17 Female  2015 0.580
#> 18 Female  2016 0.637
#> 19 Female  2017 0.609
#> 20 Female  2018 0.607
#> 
#> $agecat
#> # A tibble: 50 x 3
#>    agecat  year churn
#>    <fct>  <dbl> <dbl>
#>  1 18-24   2009 0.519
#>  2 18-24   2010 0.543
#>  3 18-24   2011 0.546
#>  4 18-24   2012 0.527
#>  5 18-24   2013 0.517
#>  6 18-24   2014 0.499
#>  7 18-24   2015 0.528
#>  8 18-24   2016 0.578
#>  9 18-24   2017 0.587
#> 10 18-24   2018 0.575
#> # ... with 40 more rows
…
