Estimate participants by year from license history — est_part • salic
…
# by segment
# produces a warning
est_part(history, "agecat")
#> Warning: Threshold of 20 for pct_change exceeded:
#>   agecat year participants change pct_change
#> 1  55-64 2009         1323    244   22.61353
#> # A tibble: 55 x 3
#>    agecat  year participants
#>    <fct>  <int>        <int>
#>  1 18-24   2008          709
#>  2 18-24   2009          827
#>  3 18-24   2010          835
#>  4 18-24   2011          805
#>  5 18-24   2012          849
#>  6 18-24   2013          864
#>  7 18-24   2014          948
#>  8 18-24   2015          963
#>  9 18-24   2016          968
#> 10 18-24   2017          884
#> # ... with 45 more rows
…
